{
  "project_info": {
    "project_number": "312291137372",
    "project_id": "taqueria-47786",
    "storage_bucket": "taqueria-47786.appspot.com"
  },
  "client": [
    {
      "client_info": {
        "mobilesdk_app_id": "1:312291137372:android:af5a80d556cd8d7d805399",
        "android_client_info": {
          "package_name": "taqueria9.com"
        }
      },
      "oauth_client": [
        {
          "client_id": "312291137372-egqg8qa5efufib7apm7iodkhobjtihv6.apps.googleusercontent.com",
          "client_type": 1,
          "android_info": {
            "package_name": "taqueria9.com",
            "certificate_hash": "5e8f16062ea3cd2c4a0d547876baa6f38cabf625"
          }
        },
        {
          "client_id": "312291137372-2k3j6qrqd9f8d149hmnfqvus8f9sqmhq.apps.googleusercontent.com",
          "client_type": 3
        }
      ],
      "api_key": [
        {
          "current_key": "AIzaSyAEA87XR6xc6_1OMCA6vrjVKZw1L70BbGM"
        }
      ],
      "services": {
        "appinvite_service": {
          "other_platform_oauth_client": [
            {
              "client_id": "312291137372-2k3j6qrqd9f8d149hmnfqvus8f9sqmhq.apps.googleusercontent.com",
              "client_type": 3
            }
          ]
        }
      }
    }
  ],
  "configuration_version": "1"
}